<?xml version="1.0" encoding="UTF-8" standalone="no"?>
<svg
   xmlns:dc="http://purl.org/dc/elements/1.1/"
   xmlns:cc="http://creativecommons.org/ns#"
   xmlns:rdf="http://www.w3.org/1999/02/22-rdf-syntax-ns#"
   xmlns:svg="http://www.w3.org/2000/svg"
   xmlns="http://www.w3.org/2000/svg"
   width="89.999985"
   height="286"
   viewBox="0 0 23.812496 75.67083"
   version="1.1"
   id="svg1310">
  <defs
     id="defs1304" />
  <metadata
     id="metadata1307">
    <rdf:RDF>
      <cc:Work
         rdf:about="">
        <dc:format>image/svg+xml</dc:format>
        <dc:type
           rdf:resource="http://purl.org/dc/dcmitype/StillImage" />
        <dc:title></dc:title>
      </cc:Work>
    </rdf:RDF>
  </metadata>
  <g
     id="layer1"
     transform="translate(-118.11756,-15.837205)">
    <g
       id="g1418">
      <g
         id="g1202"
         transform="translate(139.47173,-37.079461)">
        <path
           id="rect150"
           style="fill:#000000;fill-opacity:1;stroke:#808080;stroke-width:2.64583;stroke-miterlimit:4;stroke-dasharray:none"
           d="m -11.300005,54.239581 c 0,0 -1.5875,3.96875 -1.5875,7.9375 -2.116664,3.704166 -3.201392,9.242565 -3.175,9.260416 l -3.96875,7.9375 v 18.520833 5.29166 10.58334 l 3.96875,7.9375 1.322917,1.32292 a 2.9540348,4.2333306 0 0 0 -0.99994,3.175 2.9540348,4.2333306 0 0 0 0.09354,1.05833 h 5.7205802 a 2.9540348,4.2333306 0 0 0 0.09354,-1.05833 2.9540348,4.2333306 0 0 0 -0.3958432,-2.11667 h 1.5601131 a 2.9540345,4.2333306 0 0 0 -0.3963589,2.11667 2.9540345,4.2333306 0 0 0 0.09405,1.05833 h 5.7205803 a 2.9540345,4.2333306 0 0 0 0.093535,-1.05833 2.9540345,4.2333306 0 0 0 -1.0004557,-3.175 l 1.3229092,-1.32292 3.9687499,-7.9375 V 103.18749 97.89583 79.374997 l -3.9687499,-7.9375 c 0.02639,-0.01786 -1.0583334,-5.55625 -3.175,-9.260416 0,-3.96875 -1.5875,-7.9375 -1.5875,-7.9375 z" />
        <rect
           style="fill:#1a1a1a;fill-opacity:1;stroke:none;stroke-width:1.57767"
           id="rect120"
           width="5.2916665"
           height="1.0583333"
           x="-12.093754"
           y="123.03125" />
        <path
           id="path89"
           style="fill:#1a1a1a;fill-opacity:1;stroke:none;stroke-width:0.264583px;stroke-linecap:butt;stroke-linejoin:miter;stroke-opacity:1"
           d="m -11.300005,54.239584 c 0,0 -1.5875,3.96875 -1.5875,7.9375 -2.116665,3.704166 -3.201392,9.242565 -3.175,9.260416 h 13.2291672 c 0.026392,-0.01786 -1.0583341,-5.55625 -3.175,-9.260416 0,-3.96875 -1.5875,-7.9375 -1.5875,-7.9375 z" />
        <path
           id="path91"
           style="fill:#e6e6e6;stroke:none;stroke-width:0.264583px;stroke-linecap:butt;stroke-linejoin:miter;stroke-opacity:1"
           d="m -16.062505,71.4375 -3.96875,7.9375 H -9.4479208 1.1354119 L -2.833338,71.4375 h -6.6145828 z" />
        <rect
           style="fill:#b3b3b3;stroke-width:1.76389"
           id="rect101"
           width="21.166666"
           height="34.395832"
           x="-20.031254"
           y="79.375" />
        <path
           id="path103"
           style="fill:#e6e6e6;fill-opacity:1;stroke:none;stroke-width:0.264583px;stroke-linecap:butt;stroke-linejoin:miter;stroke-opacity:1"
           d="m -16.062505,121.70833 -3.96875,-7.9375 H -9.4479208 1.1354118 l -3.96875,7.9375 h -6.6145826 z" />
        <path
           id="path105"
           style="fill:#4d4d4d;stroke-width:1.17876"
           d="m -14.739588,123.03125 a 2.9540347,4.2333307 0 0 0 -1.000159,3.175 2.9540347,4.2333307 0 0 0 0.09376,1.05833 h 5.7205572 a 2.9540347,4.2333307 0 0 0 0.09376,-1.05833 2.9540347,4.2333307 0 0 0 -1.0004482,-3.175 z" />
        <path
           id="path116"
           style="fill:#4d4d4d;stroke-width:1.17876"
           d="m -8.0637153,123.03125 a 2.9540346,4.2333307 0 0 0 -1.0001605,3.175 2.9540346,4.2333307 0 0 0 0.09376,1.05833 h 5.7205581 a 2.9540346,4.2333307 0 0 0 0.093752,-1.05833 2.9540346,4.2333307 0 0 0 -1.0004486,-3.175 z" />
        <path
           style="fill:#1a1a1a;stroke:none;stroke-width:0.264583px;stroke-linecap:butt;stroke-linejoin:miter;stroke-opacity:1"
           d="m -16.062504,121.70833 h 13.2291662 l -1.3229166,1.32292 H -14.739588 Z"
           id="path118" />
        <rect
           style="fill:#1a1a1a;fill-opacity:1;stroke-width:0.691856"
           id="rect128"
           width="21.166666"
           height="5.2916632"
           x="-20.031254"
           y="97.895836" />
        <rect
           style="fill:#1a1a1a;fill-opacity:1;stroke-width:0.599165"
           id="rect130"
           width="15.875007"
           height="5.2916632"
           x="97.895828"
           y="13.945842"
           transform="rotate(90)" />
        <rect
           style="fill:#1a1a1a;fill-opacity:1;stroke-width:0.599165"
           id="rect132"
           width="15.875007"
           height="5.2916632"
           x="97.895828"
           y="-0.37694785"
           transform="rotate(90)" />
        <rect
           style="fill:#1a1a1a;fill-opacity:1;stroke-width:0.691856"
           id="rect1116"
           width="21.166666"
           height="5.2916632"
           x="-20.031254"
           y="87.738708" />
        <rect
           style="fill:#ececec;stroke-width:0.489215"
           id="rect1118"
           width="21.166666"
           height="2.645823"
           x="-20.031254"
           y="80.697922" />
        <path
           id="rect1130"
           style="fill:#333333;fill-opacity:1;stroke:none;stroke-width:1.76389"
           d="m -19.237505,113.77226 5.289087,-0.003 3.9713316,7.93902 -5.3318156,4e-4 z" />
        <path
           id="path1135"
           style="fill:#cccccc;stroke-width:0.570501"
           d="m -13.243386,123.03125 a 0.69195358,4.2333307 0 0 0 -0.234277,3.175 0.69195358,4.2333307 0 0 0 0.02196,1.05833 h 1.339985 a 0.69195358,4.2333307 0 0 0 0.02196,-1.05833 0.69195358,4.2333307 0 0 0 -0.234345,-3.175 z" />
        <path
           id="path1137"
           style="fill:#cccccc;stroke-width:0.570501"
           d="m -6.5675162,123.03125 a 0.69195358,4.2333307 0 0 0 -0.234277,3.175 0.69195358,4.2333307 0 0 0 0.02196,1.05833 h 1.339985 a 0.69195358,4.2333307 0 0 0 0.02196,-1.05833 0.69195358,4.2333307 0 0 0 -0.234345,-3.175 z" />
        <path
           style="fill:#333333;fill-opacity:1;stroke:none;stroke-width:0.264583px;stroke-linecap:butt;stroke-linejoin:miter;stroke-opacity:1"
           d="m -19.237505,79.375 3.96875,-7.9375 h 2.645833 l -3.96875,7.9375 z"
           id="path1139" />
        <path
           id="path1141"
           style="fill:#999999;stroke:none;stroke-width:0.264583px;stroke-linecap:butt;stroke-linejoin:miter;stroke-opacity:1"
           d="m -10.506255,54.239584 c 0,0 -1.5875,3.96875 -1.5875,7.937499 -2.116665,3.704167 -3.201392,9.242566 -3.175,9.260417 h 2.645834 c -0.02639,-0.01786 2e-6,-5.55625 2.116667,-9.260417 0,-3.968749 0.5291662,-7.937499 0.5291662,-7.937499 z" />
        <path
           style="fill:#333333;fill-opacity:1;stroke:none;stroke-width:0.264583px;stroke-linecap:butt;stroke-linejoin:miter;stroke-opacity:1"
           d="M 0.34166217,79.375 -3.6270878,71.4375 h -2.6458327 l 3.9687497,7.9375 z"
           id="path1149" />
        <path
           id="path1151"
           style="fill:#999999;stroke:none;stroke-width:0.264583px;stroke-linecap:butt;stroke-linejoin:miter;stroke-opacity:1"
           d="m -8.6541708,54.239584 c 0,0 1.5875,3.96875 1.5875,7.937499 2.116665,3.704167 3.2013917,9.242566 3.1749997,9.260417 h -2.6458337 c 0.02639,-0.01786 -2e-6,-5.55625 -2.116667,-9.260417 0,-3.968749 -0.529166,-7.937499 -0.529166,-7.937499 z" />
        <rect
           style="fill:#f9f9f9;fill-opacity:0.5;stroke:none;stroke-width:1.75475"
           id="rect1153"
           width="2.6458333"
           height="34.39426"
           x="-19.237505"
           y="79.375" />
        <rect
           style="fill:#f9f9f9;fill-opacity:0.5;stroke:none;stroke-width:1.76617"
           id="rect1155"
           width="2.681119"
           height="34.395836"
           x="-2.3041711"
           y="79.375" />
        <path
           id="path1267"
           style="fill:#333333;fill-opacity:1;stroke:none;stroke-width:1.76389"
           d="m 0.37694788,113.77226 -5.28908658,-0.003 -3.971332,7.93902 5.331816,4e-4 z" />
        <path
           style="fill:#4d4d4d;fill-opacity:1;stroke:none;stroke-width:0.264583px;stroke-linecap:butt;stroke-linejoin:miter;stroke-opacity:1"
           d="m -19.237505,113.76896 3.928605,7.93642 2.462006,0.007 -3.744775,-7.94681 z"
           id="path1456" />
        <path
           style="fill:#4d4d4d;fill-opacity:1;stroke:none;stroke-width:0.264583px;stroke-linecap:butt;stroke-linejoin:miter;stroke-opacity:1"
           d="m 0.37694788,113.76896 -3.92860498,7.93642 -2.462006,0.007 3.744775,-7.94681 z"
           id="path1530" />
      </g>
    </g>
  </g>
</svg>
